<?xml version="1.0" standalone="no"?>
<!DOCTYPE svg PUBLIC "-//W3C//DTD SVG 1.1//EN" "http://www.w3.org/Graphics/SVG/1.1/DTD/svg11.dtd" >
<svg xmlns="http://www.w3.org/2000/svg">
<metadata>Generated by IcoMoon</metadata>
<defs>
<font id="icomoon" horiz-adv-x="512">
<font-face units-per-em="512" ascent="480" descent="-32" />
<missing-glyph horiz-adv-x="512" />
<glyph unicode="&#x20;" d="" horiz-adv-x="256" />
<glyph unicode="&#xe603;" d="M479.68 370.896c-1.536 25.12-22.192 45.056-47.68 45.056h-48v16.032c0 26.512-21.504 48-48 48h-160c-26.512 0-48-21.488-48-48v-16.016h-48c-25.52 0-46.16-19.936-47.696-45.056h-0.304v-34.928c0-17.664 14.336-32 32-32v0-272c0-35.344 28.656-64 64-64h256c35.344 0 64 28.656 64 64v272c17.664 0 32 14.336 32 32v34.912h-0.32zM160 431.968c0 8.848 7.152 16 16 16h160c8.848 0 16-7.152 16-16v-16h-192v16zM416 31.968c0-17.632-14.368-32-32-32h-256c-17.648 0-32 14.368-32 32v272h320v-272zM448 351.984v-16h-384v31.984c0 8.848 7.152 16 16 16h352c8.848 0 16-7.152 16-16v-15.984zM144 31.904h32c8.848 0 16 7.152 16 16v208c0 8.848-7.152 16-16 16h-32c-8.848 0-16-7.152-16-16v-208c0-8.848 7.152-16 16-16zM144 255.92h32v-208h-32v208zM240 31.904h32c8.848 0 16 7.152 16 16v208c0 8.848-7.152 16-16 16h-32c-8.848 0-16-7.152-16-16v-208c0-8.848 7.152-16 16-16zM240 255.92h32v-208h-32v208zM336 31.904h32c8.848 0 16 7.152 16 16v208c0 8.848-7.152 16-16 16h-32c-8.848 0-16-7.152-16-16v-208c0-8.848 7.152-16 16-16zM336 255.92h32v-208h-32v208z" />
</font></defs></svg>