<?xml version="1.0" standalone="no"?>
<!DOCTYPE svg PUBLIC "-//W3C//DTD SVG 1.1//EN" "http://www.w3.org/Graphics/SVG/1.1/DTD/svg11.dtd" >
<svg xmlns="http://www.w3.org/2000/svg">
<metadata>Generated by IcoMoon</metadata>
<defs>
<font id="icomoon" horiz-adv-x="512">
<font-face units-per-em="512" ascent="480" descent="-32" />
<missing-glyph horiz-adv-x="512" />
<glyph unicode="&#x20;" d="" horiz-adv-x="256" />
<glyph unicode="&#xe607;" d="M329.372 105.372l-105.372 105.373v141.255h64v-114.745l86.628-86.627zM256 480c-141.385 0-256-114.615-256-256s114.615-256 256-256 256 114.615 256 256-114.615 256-256 256zM256 32c-106.039 0-192 85.961-192 192s85.961 192 192 192c106.039 0 192-85.961 192-192 0-106.039-85.961-192-192-192z" />
<glyph unicode="&#xe608;" d="M311.413 128.632c-11.055 1.759-11.307 32.157-11.307 32.157s32.484 32.158 39.564 75.401c19.045 0 30.809 45.973 11.761 62.148 0.795 17.027 24.48 133.662-95.431 133.662-119.911 0-96.225-116.635-95.432-133.662-19.047-16.175-7.285-62.148 11.761-62.148 7.079-43.243 39.564-75.401 39.564-75.401s-0.252-30.398-11.307-32.157c-35.61-5.666-168.586-64.317-168.586-128.632h448c0 64.315-132.976 122.966-168.587 128.632z" />
<glyph unicode="&#xe609;" d="M367.497 77.313c-9.476 1.494-9.692 27.327-9.692 27.327s27.844 27.328 33.912 64.076c16.326 0 26.407 39.069 10.082 52.814 0.681 14.47 20.984 113.588-81.799 113.588-102.782 0-82.479-99.118-81.799-113.588-16.327-13.745-6.244-52.814 10.081-52.814 6.067-36.748 33.913-64.076 33.913-64.076s-0.216-25.833-9.692-27.327c-30.524-4.816-144.503-54.658-144.503-109.313h384c0 54.655-113.979 104.497-144.503 109.313zM172.027 68.595c22.047 13.575 48.813 26.154 70.769 33.712-7.876 11.216-16.647 26.468-22.165 44.531-7.703 6.283-13.972 15.266-17.999 26.301-4.033 11.052-5.561 23.426-4.304 34.842 0.902 8.196 3.239 15.833 6.825 22.544-2.175 23.293-3.707 69.017 26.224 102.366 11.607 12.933 26.278 22.23 43.85 27.843-3.137 32.38-19.58 70.385-83.227 70.385-102.782 0-82.479-99.118-81.799-113.588-16.327-13.745-6.244-52.814 10.081-52.814 6.067-36.748 33.913-64.076 33.913-64.076s-0.216-25.833-9.692-27.327c-30.524-4.817-144.503-54.659-144.503-109.314h164.798c2.355 1.537 4.753 3.070 7.229 4.595z" />
<glyph unicode="&#xe60a;" d="M424-32h-336c-13.255 0-24 10.745-24 24 0 34.431 14.534 76.102 38.879 111.471 20.346 29.559 45.342 51.81 72.339 64.805-11.899 10.822-22.147 24.013-30.254 39.061-13 24.131-19.873 52.024-19.873 80.664 0 39.803 13.102 77.411 36.893 105.895 24.832 29.73 58.221 46.104 94.016 46.104s69.184-16.374 94.017-46.105c23.79-28.484 36.893-66.091 36.893-105.895 0-28.64-6.872-56.533-19.872-80.664-8.107-15.048-18.355-28.239-30.255-39.061 26.997-12.995 51.993-35.246 72.339-64.805 24.344-35.368 38.878-77.039 38.878-111.47 0-13.255-10.745-24-24-24zM115.037 16h281.926c-4.613 19.67-14.26 41.192-27.381 60.255-20.727 30.113-46.588 49.811-72.819 55.463-11.053 2.382-18.944 12.155-18.944 23.462v17.146c0 8.63 4.633 16.595 12.135 20.861 29.739 16.916 48.956 54.133 48.956 94.813 0 57.346-37.192 104-82.909 104-45.716 0-82.909-46.654-82.909-104 0-40.68 19.217-77.896 48.957-94.813 7.501-4.267 12.134-12.231 12.134-20.861v-17.146c0-11.307-7.892-21.080-18.944-23.462-26.231-5.652-52.092-25.35-72.82-55.463-13.123-19.063-22.768-40.585-27.382-60.255z" />
<glyph unicode="&#xe60b;" d="M488-32h-336c-13.255 0-24 10.745-24 24 0 34.431 14.534 76.102 38.879 111.471 20.346 29.559 45.342 51.81 72.339 64.805-11.899 10.822-22.147 24.013-30.254 39.061-13 24.131-19.873 52.024-19.873 80.664 0 39.803 13.102 77.411 36.893 105.895 24.832 29.73 58.221 46.104 94.016 46.104s69.184-16.374 94.017-46.105c23.79-28.484 36.893-66.091 36.893-105.895 0-28.64-6.872-56.533-19.872-80.664-8.107-15.048-18.355-28.239-30.255-39.061 26.997-12.995 51.993-35.246 72.339-64.805 24.344-35.368 38.878-77.039 38.878-111.47 0-13.255-10.745-24-24-24zM179.037 16h281.926c-4.613 19.67-14.26 41.192-27.381 60.255-20.727 30.113-46.588 49.811-72.819 55.463-11.053 2.382-18.944 12.155-18.944 23.462v17.146c0 8.63 4.633 16.595 12.135 20.861 29.739 16.916 48.956 54.133 48.956 94.813 0 57.346-37.192 104-82.909 104s-82.909-46.654-82.909-104c0-40.68 19.217-77.896 48.957-94.813 7.501-4.267 12.134-12.231 12.134-20.861v-17.146c0-11.307-7.892-21.080-18.944-23.462-26.231-5.652-52.092-25.35-72.82-55.463-13.123-19.063-22.768-40.585-27.382-60.255zM98.557 48h-47.52c4.614 19.67 14.259 41.192 27.38 60.255 20.728 30.113 46.589 49.811 72.82 55.463 11.053 2.382 18.944 12.155 18.944 23.462v17.146c0 8.63-4.633 16.595-12.134 20.861-29.74 16.917-48.957 54.133-48.957 94.813 0 57.346 37.192 104 82.909 104 3.127 0 6.213-0.226 9.251-0.651 13.179 14.667 28.117 26.587 44.321 35.502-16.596 8.616-34.75 13.149-53.571 13.149-35.795 0-69.184-16.374-94.017-46.105-23.79-28.484-36.892-66.092-36.892-105.895 0-28.64 6.872-56.533 19.873-80.664 8.107-15.048 18.355-28.238 30.254-39.061-26.997-12.995-51.993-35.246-72.339-64.805-24.345-35.368-38.879-77.039-38.879-111.47 0-13.255 10.745-24 24-24h66.193c0.738 15.513 3.599 31.706 8.364 48z" />
<glyph unicode="&#xe60c;" d="M128 320c0 70.692 57.308 128 128 128s128-57.308 128-128c0-70.692-57.308-128-128-128-70.692 0-128 57.308-128 128zM384 160h-256c-70.692 0-128-57.309-128-128v-32h512v32c0 70.691-57.308 128-128 128z" />
<glyph unicode="&#xe60d;" d="M160 384c0 53.019 42.981 96 96 96s96-42.981 96-96c0-53.019-42.981-96-96-96-53.019 0-96 42.981-96 96zM384.039 256h-17.712l-99.552-202.122 37.225 186.122-48 48-48-48 37.225-186.122-99.551 202.122h-17.712c-63.962 0-63.962-42.993-63.962-96v-160h384v160c0 53.007 0 96-63.961 96z" />
<glyph unicode="&#xe60e;" d="M466.895 174.875c-26.863 46.527-10.708 106.152 36.076 133.244l-50.313 87.146c-14.375-8.427-31.088-13.259-48.923-13.259-53.768 0-97.354 43.873-97.354 97.995h-100.629c0.133-16.705-4.037-33.641-12.979-49.126-26.862-46.528-86.578-62.351-133.431-35.379l-50.312-87.146c14.485-8.236 27.025-20.294 35.943-35.739 26.819-46.454 10.756-105.96-35.854-133.112l50.313-87.146c14.325 8.348 30.958 13.127 48.7 13.127 53.598 0 97.072-43.596 97.35-97.479h100.627c-0.043 16.537 4.136 33.285 12.983 48.609 26.818 46.453 86.388 62.297 133.207 35.506l50.313 87.145c-14.39 8.233-26.846 20.249-35.717 35.614zM256 120.334c-57.254 0-103.668 46.412-103.668 103.667 0 57.254 46.413 103.667 103.668 103.667 57.254 0 103.666-46.413 103.666-103.667-0.001-57.255-46.412-103.667-103.666-103.667z" />
<glyph unicode="&#xe60f;" d="M181.861 118.974l20.649 28.908-22.627 22.628-28.909-20.648c-5.361 2.997-11.102 5.387-17.133 7.096l-5.841 35.042h-32l-5.84-35.043c-6.031-1.709-11.772-4.099-17.133-7.096l-28.909 20.649-22.628-22.628 20.649-28.908c-2.997-5.36-5.387-11.103-7.096-17.133l-35.043-5.841v-32l35.043-5.841c1.709-6.030 4.099-11.772 7.096-17.133l-20.649-28.908 22.627-22.628 28.909 20.648c5.361-2.997 11.102-5.387 17.133-7.096l5.841-35.042h32l5.84 35.043c6.031 1.709 11.772 4.099 17.133 7.096l28.909-20.648 22.627 22.628-20.649 28.908c2.997 5.36 5.387 11.103 7.096 17.133l35.044 5.84v32l-35.043 5.841c-1.709 6.030-4.099 11.772-7.096 17.133zM112 48c-17.674 0-32 14.327-32 32s14.326 32 32 32 32-14.327 32-32-14.326-32-32-32zM512 288v32l-33.691 6.125c-0.621 4.023-1.416 7.989-2.362 11.895l28.779 18.55-12.246 29.564-33.472-7.234c-2.107 3.455-4.363 6.81-6.746 10.065l19.503 28.171-22.628 22.627-28.171-19.503c-3.256 2.383-6.61 4.638-10.065 6.747l7.234 33.472-29.564 12.247-18.55-28.779c-3.906 0.946-7.872 1.741-11.895 2.362l-6.126 33.691h-32l-6.126-33.691c-4.023-0.621-7.988-1.416-11.895-2.362l-18.549 28.779-29.564-12.246 7.234-33.472c-3.455-2.108-6.81-4.364-10.065-6.747l-28.171 19.503-22.627-22.627 19.503-28.171c-2.383-3.255-4.639-6.61-6.747-10.065l-33.472 7.234-12.246-29.564 28.779-18.55c-0.946-3.906-1.741-7.871-2.362-11.895l-33.692-6.126v-32l33.691-6.125c0.621-4.023 1.416-7.989 2.362-11.895l-28.779-18.55 12.246-29.564 33.472 7.234c2.108-3.455 4.364-6.809 6.747-10.065l-19.503-28.171 22.627-22.628 28.171 19.503c3.255-2.383 6.61-4.638 10.065-6.746l-7.234-33.472 29.564-12.246 18.551 28.779c3.905-0.946 7.871-1.741 11.894-2.362l6.126-33.692h32l6.126 33.691c4.022 0.621 7.988 1.416 11.895 2.362l18.55-28.779 29.564 12.246-7.234 33.472c3.455 2.108 6.81 4.363 10.065 6.746l28.171-19.503 22.628 22.628-19.503 28.171c2.383 3.256 4.638 6.61 6.746 10.065l33.472-7.234 12.246 29.565-28.779 18.55c0.946 3.906 1.741 7.871 2.362 11.895l33.691 6.125zM336 234.4c-38.439 0-69.6 31.161-69.6 69.6s31.16 69.6 69.6 69.6 69.6-31.161 69.6-69.6c0-38.439-31.16-69.6-69.6-69.6z" />
<glyph unicode="&#xe610;" d="M512 175.953v96.094l-73.387 12.231c-2.979 9.066-6.611 17.834-10.847 26.25l43.227 60.517-67.948 67.949-60.413-43.152c-8.455 4.277-17.269 7.944-26.384 10.951l-12.201 73.207h-96.094l-12.201-73.208c-9.115-3.007-17.929-6.674-26.383-10.951l-60.414 43.152-67.949-67.949 43.227-60.518c-4.235-8.415-7.867-17.183-10.846-26.249l-73.387-12.23v-96.094l73.559-12.26c2.98-8.984 6.605-17.674 10.821-26.015l-43.374-60.724 67.949-67.948 60.827 43.447c8.301-4.175 16.945-7.764 25.882-10.717l12.289-73.736h96.094l12.289 73.737c8.937 2.953 17.581 6.542 25.883 10.716l60.826-43.446 67.948 67.948-43.372 60.723c4.216 8.341 7.839 17.031 10.82 26.016l73.559 12.259zM256 160c-35.346 0-64 28.653-64 64 0 35.346 28.654 64 64 64 35.347 0 64-28.654 64-64 0-35.347-28.653-64-64-64z" />
</font></defs></svg>